digraph G {
node [shape=record];
subgraph cluster_NDEBJ {
node [style=filled,shape=record];
style=filled;
color=lightgrey;
"NDEBJINI" [shape=record,fillcolor=white,label="{ NDEBJINI | Jour : tous  }"]
"NDEBJCHG" [shape=record,fillcolor=white,label="{ NDEBJCHG | Jour : tous  }"]
"NDEBJEPU" [shape=record,fillcolor=white,label="{ NDEBJEPU | Jour : tous  }"]
label="NDEBJ";
}
subgraph cluster_NAPPD {
node [style=filled,shape=record];
style=filled;
color=lightgrey;
"NAPPDDIS" [shape=record,fillcolor=white,label="{ NAPPDDIS | Jour : dim | NodeID : DMRH20ILN3  }"]
"NAPPDDIH" [shape=record,fillcolor=white,label="{ NAPPDDIH | Jour : dim | NodeID : DMRH20ILN3  }"]
"NAPPDDS2" [shape=record,fillcolor=white,label="{ NAPPDDS2 | Jour : dim | NodeID : DMRH20ILN4  }"]
"NAPPDCFS" [shape=record,fillcolor=white,label="{ NAPPDCFS | Jour : dim | NodeID : DMRH20ILN3  }"]
"NAPPD999" [shape=record,fillcolor=yellow,label="{ NAPPD999 | Jour : dim  }"]
"NAPPD100" [shape=record,fillcolor=yellow,label="{ NAPPD100 | Jour : dim  }"]
label="NAPPD";
}
subgraph cluster_NPURG {
node [style=filled,shape=record];
style=filled;
color=lightgrey;
"NPURGLNX" [shape=record,fillcolor=white,label="{ NPURGLNX | Jour : tous | NodeID : DMRH20ILN3  }"]
"NPURGLN2" [shape=record,fillcolor=white,label="{ NPURGLN2 | Jour : tous | NodeID : DMRH20ILN4  }"]
"NPURGD" [shape=record,fillcolor=yellow,label="{ NPURGD | Jour : tous | Horaire : 20:00  }"]
"PURG1999" [shape=record,fillcolor=yellow,label="{ PURG1999 | Jour : tous  }"]
label="NPURG";
}
subgraph cluster_NAPPA {
node [style=filled,shape=record];
style=filled;
color=lightgrey;
"NAPPADIS" [shape=record,fillcolor=white,label="{ NAPPADIS | Jour : dim | NodeID : DMRH20ILN3  }"]
"NAPPADIH" [shape=record,fillcolor=white,label="{ NAPPADIH | Jour : dim | NodeID : DMRH20ILN3  }"]
"NAPPAIDO" [shape=record,fillcolor=white,label="{ NAPPAIDO | Jour : dim | NodeID : DMRH20ILN3  }"]
"NAPPADS2" [shape=record,fillcolor=white,label="{ NAPPADS2 | Jour : dim | NodeID : DMRH20ILN4  }"]
"NAPPAID2" [shape=record,fillcolor=white,label="{ NAPPAID2 | Jour : dim | NodeID : DMRH20ILN4  }"]
"NAPPAPA1" [shape=record,fillcolor=white,label="{ NAPPAPA1 | Jour : dim | NodeID : DMRH20ILN3  }"]
"NAPPAPA2" [shape=record,fillcolor=white,label="{ NAPPAPA2 | Jour : dim | NodeID : DMRH20ILN4  }"]
"NAPPACFS" [shape=record,fillcolor=white,label="{ NAPPACFS | Jour : dim | NodeID : DMRH20ILN3  }"]
"NAPPA199" [shape=record,fillcolor=yellow,label="{ NAPPA199 | Jour : dim  }"]
"NAPPA000" [shape=record,fillcolor=yellow,label="{ NAPPA000 | Jour : dim | Horaire : 03:00  }"]
label="NAPPA";
}
subgraph cluster_NINDX {
node [style=filled,shape=record];
style=filled;
color=lightgrey;
"NINDX199" [shape=record,fillcolor=yellow,label="{ NINDX199 | Jour : dim  }"]
"NINDX01" [shape=record,fillcolor=white,label="{ NINDX01 | Jour : dim | NodeID : DMRH20ILN3  }"]
"NINDXD" [shape=record,fillcolor=yellow,label="{ NINDXD | Jour : dim | Horaire : 18:00  }"]
label="NINDX";
}
subgraph cluster_NBOOT {
node [style=filled,shape=record];
style=filled;
color=lightgrey;
"NBOOTLNX" [shape=record,fillcolor=white,label="{ NBOOTLNX | Jour : dim | NodeID : DMRH20ILN3  }"]
"NBOOTLN2" [shape=record,fillcolor=white,label="{ NBOOTLN2 | Jour : dim | NodeID : DMRH20ILN4  }"]
"NBOOTD2" [shape=record,fillcolor=yellow,label="{ NBOOTD2 | Jour : dim  }"]
"NBOOTLND" [shape=record,fillcolor=yellow,label="{ NBOOTLND | Jour : dim  }"]
label="NBOOT";
}
subgraph cluster_NFINJ {
node [style=filled,shape=record];
style=filled;
color=lightgrey;
"NFINJSYS" [shape=record,fillcolor=white,label="{ NFINJSYS | Jour : sans  }"]
"NFINJLIS" [shape=record,fillcolor=white,label="{ NFINJLIS | Jour : sans  }"]
label="NFINJ";
}
subgraph cluster_NAPP1 {
node [style=filled,shape=record];
style=filled;
color=lightgrey;
"NAPP1SLX" [shape=record,fillcolor=white,label="{ NAPP1SLX | Jour : tous | Horaire : 01:00 | NodeID : DMRH20ILN3  }"]
"NAPP1999" [shape=record,fillcolor=yellow,label="{ NAPP1999 | Jour : tous  }"]
"NAPP1000" [shape=record,fillcolor=yellow,label="{ NAPP1000 | Jour : tous | Horaire : 00:30  }"]
"NAPP1AT3" [shape=record,fillcolor=white,label="{ NAPP1AT3 | Jour : tous | NodeID : DMRH20ILN3  }"]
"NAPP1WCM" [shape=record,fillcolor=white,label="{ NAPP1WCM | Jour : tous | NodeID : DMRH20ILN3  }"]
"NAPP1AT2" [shape=record,fillcolor=white,label="{ NAPP1AT2 | Jour : tous | NodeID : DMRH20ILN3  }"]
"NAPP1GE2" [shape=record,fillcolor=white,label="{ NAPP1GE2 | Jour : tous | NodeID : DMRH20ILN3  }"]
label="NAPP1";
}
subgraph cluster_NSVN1 {
node [style=filled,shape=record];
style=filled;
color=lightgrey;
"NSVN1001" [shape=record,fillcolor=white,label="{ NSVN1001 | Jour : tous | NodeID : DMRH20ILN3  }"]
"NSVN1002" [shape=record,fillcolor=white,label="{ NSVN1002 | Jour : tous | NodeID : DMRH20ILN4  }"]
"NSVN1000" [shape=record,fillcolor=yellow,label="{ NSVN1000 | Jour : sans | Horaire : 12:30  }"]
"NSVN1999" [shape=record,fillcolor=yellow,label="{ NSVN1999 | Jour : sans  }"]
label="NSVN1";
}
"NDEBJINI" -> "NDEBJCHG";
"NDEBJCHG" -> "NDEBJEPU";
"NDEBJEPU" -> "NINDXD";
"NDEBJEPU" -> "NSVN1000";
"NDEBJEPU" -> "NAPPA000";
"NDEBJEPU" -> "NPURGD";
"NAPPDDIS" -> "NAPPDDIH";
"NAPPDDIH" -> "NAPPDCFS";
"NAPPDDS2" -> "NAPPD999";
"NAPPDCFS" -> "NAPPD999";
"NAPPD999" -> "NFINJLIS";
"NAPPD100" -> "NAPPDDIS";
"NAPPD100" -> "NAPPDDS2";
"NPURGLNX" -> "PURG1999";
"NPURGLN2" -> "PURG1999";
"NPURGD" -> "NPURGLNX";
"NPURGD" -> "NPURGLN2";
"PURG1999" -> "NAPP1000";
"NAPPADIS" -> "NAPPADIH";
"NAPPADIH" -> "NAPPACFS";
"NAPPAIDO" -> "NAPPA199";
"NAPPADS2" -> "NAPPAID2";
"NAPPAID2" -> "NAPPA199";
"NAPPAPA1" -> "NAPPADIS";
"NAPPAPA2" -> "NAPPADS2";
"NAPPACFS" -> "NAPPAIDO";
"NAPPACFS" -> "NAPPAID2";
"NAPPA199" -> "NBOOTLND";
"NAPPA000" -> "NAPPAPA2";
"NAPPA000" -> "NAPPAPA1";
"NINDX199" -> "NPURGD";
"NINDX01" -> "NINDX199";
"NINDXD" -> "NINDX01";
"NBOOTLNX" -> "NBOOTD2";
"NBOOTLN2" -> "NBOOTD2";
"NBOOTD2" -> "NAPPD100";
"NBOOTLND" -> "NBOOTLN2";
"NBOOTLND" -> "NBOOTLNX";
"NFINJSYS" -> "NDEBJINI";
"NFINJLIS" -> "NFINJSYS";
"NAPP1SLX" -> "NAPP1WCM";
"NAPP1999" -> "NFINJLIS";
"NAPP1000" -> "NAPP1SLX";
"NAPP1AT3" -> "NAPP1GE2";
"NAPP1WCM" -> "NAPP1AT2";
"NAPP1AT2" -> "NAPP1AT3";
"NAPP1GE2" -> "NAPP1999";
"NSVN1001" -> "NSVN1999";
"NSVN1002" -> "NSVN1999";
"NSVN1000" -> "NSVN1002";
"NSVN1000" -> "NSVN1001";
"NSVN1999" -> "NFINJLIS";
}

